<?xml version="1.0" encoding="utf-8"?>
<svg xmlns="http://www.w3.org/2000/svg" xmlns:xlink="http://www.w3.org/1999/xlink" width="600" height="400" viewBox="0 0 2400 1600">
<defs>
  <clipPath id="clip230">
    <rect x="0" y="0" width="2400" height="1600"/>
  </clipPath>
</defs>
<path clip-path="url(#clip230)" d="
M0 1600 L2400 1600 L2400 0 L0 0  Z
  " fill="#ffffff" fill-rule="evenodd" fill-opacity="1"/>
<defs>
  <clipPath id="clip231">
    <rect x="480" y="0" width="1681" height="1600"/>
  </clipPath>
</defs>
<path clip-path="url(#clip230)" d="
M262.523 1418.21 L2352.76 1418.21 L2352.76 47.2441 L262.523 47.2441  Z
  " fill="#ffffff" fill-rule="evenodd" fill-opacity="1"/>
<defs>
  <clipPath id="clip232">
    <rect x="262" y="47" width="2091" height="1372"/>
  </clipPath>
</defs>
<polyline clip-path="url(#clip232)" style="stroke:#000000; stroke-linecap:butt; stroke-linejoin:round; stroke-width:2; stroke-opacity:0.1; fill:none" points="
  496.787,1418.21 496.787,47.2441 
  "/>
<polyline clip-path="url(#clip232)" style="stroke:#000000; stroke-linecap:butt; stroke-linejoin:round; stroke-width:2; stroke-opacity:0.1; fill:none" points="
  900.635,1418.21 900.635,47.2441 
  "/>
<polyline clip-path="url(#clip232)" style="stroke:#000000; stroke-linecap:butt; stroke-linejoin:round; stroke-width:2; stroke-opacity:0.1; fill:none" points="
  1304.48,1418.21 1304.48,47.2441 
  "/>
<polyline clip-path="url(#clip232)" style="stroke:#000000; stroke-linecap:butt; stroke-linejoin:round; stroke-width:2; stroke-opacity:0.1; fill:none" points="
  1708.33,1418.21 1708.33,47.2441 
  "/>
<polyline clip-path="url(#clip232)" style="stroke:#000000; stroke-linecap:butt; stroke-linejoin:round; stroke-width:2; stroke-opacity:0.1; fill:none" points="
  2112.18,1418.21 2112.18,47.2441 
  "/>
<polyline clip-path="url(#clip230)" style="stroke:#000000; stroke-linecap:butt; stroke-linejoin:round; stroke-width:4; stroke-opacity:1; fill:none" points="
  262.523,1418.21 2352.76,1418.21 
  "/>
<polyline clip-path="url(#clip230)" style="stroke:#000000; stroke-linecap:butt; stroke-linejoin:round; stroke-width:4; stroke-opacity:1; fill:none" points="
  496.787,1418.21 496.787,1399.31 
  "/>
<polyline clip-path="url(#clip230)" style="stroke:#000000; stroke-linecap:butt; stroke-linejoin:round; stroke-width:4; stroke-opacity:1; fill:none" points="
  900.635,1418.21 900.635,1399.31 
  "/>
<polyline clip-path="url(#clip230)" style="stroke:#000000; stroke-linecap:butt; stroke-linejoin:round; stroke-width:4; stroke-opacity:1; fill:none" points="
  1304.48,1418.21 1304.48,1399.31 
  "/>
<polyline clip-path="url(#clip230)" style="stroke:#000000; stroke-linecap:butt; stroke-linejoin:round; stroke-width:4; stroke-opacity:1; fill:none" points="
  1708.33,1418.21 1708.33,1399.31 
  "/>
<polyline clip-path="url(#clip230)" style="stroke:#000000; stroke-linecap:butt; stroke-linejoin:round; stroke-width:4; stroke-opacity:1; fill:none" points="
  2112.18,1418.21 2112.18,1399.31 
  "/>
<path clip-path="url(#clip230)" d="M441.312 1476.67 L448.951 1476.67 L448.951 1450.31 L440.641 1451.98 L440.641 1447.72 L448.905 1446.05 L453.581 1446.05 L453.581 1476.67 L461.22 1476.67 L461.22 1480.61 L441.312 1480.61 L441.312 1476.67 Z" fill="#000000" fill-rule="evenodd" fill-opacity="1" /><path clip-path="url(#clip230)" d="M481.243 1461.47 Q478.095 1461.47 476.243 1463.62 Q474.414 1465.77 474.414 1469.52 Q474.414 1473.25 476.243 1475.42 Q478.095 1477.58 481.243 1477.58 Q484.391 1477.58 486.219 1475.42 Q488.071 1473.25 488.071 1469.52 Q488.071 1465.77 486.219 1463.62 Q484.391 1461.47 481.243 1461.47 M490.525 1446.81 L490.525 1451.07 Q488.766 1450.24 486.96 1449.8 Q485.178 1449.36 483.419 1449.36 Q478.789 1449.36 476.335 1452.48 Q473.905 1455.61 473.557 1461.93 Q474.923 1459.91 476.983 1458.85 Q479.044 1457.76 481.52 1457.76 Q486.729 1457.76 489.738 1460.93 Q492.77 1464.08 492.77 1469.52 Q492.77 1474.85 489.622 1478.06 Q486.474 1481.28 481.243 1481.28 Q475.247 1481.28 472.076 1476.7 Q468.905 1472.09 468.905 1463.36 Q468.905 1455.17 472.794 1450.31 Q476.682 1445.42 483.233 1445.42 Q484.993 1445.42 486.775 1445.77 Q488.581 1446.12 490.525 1446.81 Z" fill="#000000" fill-rule="evenodd" fill-opacity="1" /><path clip-path="url(#clip230)" d="M504.854 1476.67 L521.173 1476.67 L521.173 1480.61 L499.229 1480.61 L499.229 1476.67 Q501.891 1473.92 506.474 1469.29 Q511.08 1464.64 512.261 1463.29 Q514.506 1460.77 515.386 1459.04 Q516.289 1457.28 516.289 1455.59 Q516.289 1452.83 514.344 1451.1 Q512.423 1449.36 509.321 1449.36 Q507.122 1449.36 504.668 1450.12 Q502.238 1450.89 499.46 1452.44 L499.46 1447.72 Q502.284 1446.58 504.738 1446 Q507.192 1445.42 509.229 1445.42 Q514.599 1445.42 517.793 1448.11 Q520.988 1450.79 520.988 1455.29 Q520.988 1457.41 520.178 1459.34 Q519.391 1461.23 517.284 1463.83 Q516.705 1464.5 513.604 1467.72 Q510.502 1470.91 504.854 1476.67 Z" fill="#000000" fill-rule="evenodd" fill-opacity="1" /><path clip-path="url(#clip230)" d="M540.988 1449.13 Q537.377 1449.13 535.548 1452.69 Q533.742 1456.23 533.742 1463.36 Q533.742 1470.47 535.548 1474.04 Q537.377 1477.58 540.988 1477.58 Q544.622 1477.58 546.427 1474.04 Q548.256 1470.47 548.256 1463.36 Q548.256 1456.23 546.427 1452.69 Q544.622 1449.13 540.988 1449.13 M540.988 1445.42 Q546.798 1445.42 549.853 1450.03 Q552.932 1454.61 552.932 1463.36 Q552.932 1472.09 549.853 1476.7 Q546.798 1481.28 540.988 1481.28 Q535.178 1481.28 532.099 1476.7 Q529.043 1472.09 529.043 1463.36 Q529.043 1454.61 532.099 1450.03 Q535.178 1445.42 540.988 1445.42 Z" fill="#000000" fill-rule="evenodd" fill-opacity="1" /><path clip-path="url(#clip230)" d="M845.161 1476.67 L852.8 1476.67 L852.8 1450.31 L844.49 1451.98 L844.49 1447.72 L852.754 1446.05 L857.43 1446.05 L857.43 1476.67 L865.068 1476.67 L865.068 1480.61 L845.161 1480.61 L845.161 1476.67 Z" fill="#000000" fill-rule="evenodd" fill-opacity="1" /><path clip-path="url(#clip230)" d="M885.091 1461.47 Q881.943 1461.47 880.092 1463.62 Q878.263 1465.77 878.263 1469.52 Q878.263 1473.25 880.092 1475.42 Q881.943 1477.58 885.091 1477.58 Q888.24 1477.58 890.068 1475.42 Q891.92 1473.25 891.92 1469.52 Q891.92 1465.77 890.068 1463.62 Q888.24 1461.47 885.091 1461.47 M894.374 1446.81 L894.374 1451.07 Q892.615 1450.24 890.809 1449.8 Q889.027 1449.36 887.267 1449.36 Q882.638 1449.36 880.184 1452.48 Q877.754 1455.61 877.406 1461.93 Q878.772 1459.91 880.832 1458.85 Q882.892 1457.76 885.369 1457.76 Q890.578 1457.76 893.587 1460.93 Q896.619 1464.08 896.619 1469.52 Q896.619 1474.85 893.471 1478.06 Q890.323 1481.28 885.091 1481.28 Q879.096 1481.28 875.925 1476.7 Q872.754 1472.09 872.754 1463.36 Q872.754 1455.17 876.642 1450.31 Q880.531 1445.42 887.082 1445.42 Q888.841 1445.42 890.624 1445.77 Q892.429 1446.12 894.374 1446.81 Z" fill="#000000" fill-rule="evenodd" fill-opacity="1" /><path clip-path="url(#clip230)" d="M917.522 1450.12 L905.716 1468.57 L917.522 1468.57 L917.522 1450.12 M916.295 1446.05 L922.175 1446.05 L922.175 1468.57 L927.105 1468.57 L927.105 1472.46 L922.175 1472.46 L922.175 1480.61 L917.522 1480.61 L917.522 1472.46 L901.92 1472.46 L901.92 1467.95 L916.295 1446.05 Z" fill="#000000" fill-rule="evenodd" fill-opacity="1" /><path clip-path="url(#clip230)" d="M944.837 1449.13 Q941.225 1449.13 939.397 1452.69 Q937.591 1456.23 937.591 1463.36 Q937.591 1470.47 939.397 1474.04 Q941.225 1477.58 944.837 1477.58 Q948.471 1477.58 950.276 1474.04 Q952.105 1470.47 952.105 1463.36 Q952.105 1456.23 950.276 1452.69 Q948.471 1449.13 944.837 1449.13 M944.837 1445.42 Q950.647 1445.42 953.702 1450.03 Q956.781 1454.61 956.781 1463.36 Q956.781 1472.09 953.702 1476.7 Q950.647 1481.28 944.837 1481.28 Q939.026 1481.28 935.948 1476.7 Q932.892 1472.09 932.892 1463.36 Q932.892 1454.61 935.948 1450.03 Q939.026 1445.42 944.837 1445.42 Z" fill="#000000" fill-rule="evenodd" fill-opacity="1" /><path clip-path="url(#clip230)" d="M1249.01 1476.67 L1256.65 1476.67 L1256.65 1450.31 L1248.34 1451.98 L1248.34 1447.72 L1256.6 1446.05 L1261.28 1446.05 L1261.28 1476.67 L1268.92 1476.67 L1268.92 1480.61 L1249.01 1480.61 L1249.01 1476.67 Z" fill="#000000" fill-rule="evenodd" fill-opacity="1" /><path clip-path="url(#clip230)" d="M1288.94 1461.47 Q1285.79 1461.47 1283.94 1463.62 Q1282.11 1465.77 1282.11 1469.52 Q1282.11 1473.25 1283.94 1475.42 Q1285.79 1477.58 1288.94 1477.58 Q1292.09 1477.58 1293.92 1475.42 Q1295.77 1473.25 1295.77 1469.52 Q1295.77 1465.77 1293.92 1463.62 Q1292.09 1461.47 1288.94 1461.47 M1298.22 1446.81 L1298.22 1451.07 Q1296.46 1450.24 1294.66 1449.8 Q1292.88 1449.36 1291.12 1449.36 Q1286.49 1449.36 1284.03 1452.48 Q1281.6 1455.61 1281.26 1461.93 Q1282.62 1459.91 1284.68 1458.85 Q1286.74 1457.76 1289.22 1457.76 Q1294.43 1457.76 1297.44 1460.93 Q1300.47 1464.08 1300.47 1469.52 Q1300.47 1474.85 1297.32 1478.06 Q1294.17 1481.28 1288.94 1481.28 Q1282.94 1481.28 1279.77 1476.7 Q1276.6 1472.09 1276.6 1463.36 Q1276.6 1455.17 1280.49 1450.31 Q1284.38 1445.42 1290.93 1445.42 Q1292.69 1445.42 1294.47 1445.77 Q1296.28 1446.12 1298.22 1446.81 Z" fill="#000000" fill-rule="evenodd" fill-opacity="1" /><path clip-path="url(#clip230)" d="M1319.1 1461.47 Q1315.95 1461.47 1314.1 1463.62 Q1312.27 1465.77 1312.27 1469.52 Q1312.27 1473.25 1314.1 1475.42 Q1315.95 1477.58 1319.1 1477.58 Q1322.25 1477.58 1324.08 1475.42 Q1325.93 1473.25 1325.93 1469.52 Q1325.93 1465.77 1324.08 1463.62 Q1322.25 1461.47 1319.1 1461.47 M1328.38 1446.81 L1328.38 1451.07 Q1326.63 1450.24 1324.82 1449.8 Q1323.04 1449.36 1321.28 1449.36 Q1316.65 1449.36 1314.19 1452.48 Q1311.76 1455.61 1311.42 1461.93 Q1312.78 1459.91 1314.84 1458.85 Q1316.9 1457.76 1319.38 1457.76 Q1324.59 1457.76 1327.6 1460.93 Q1330.63 1464.08 1330.63 1469.52 Q1330.63 1474.85 1327.48 1478.06 Q1324.33 1481.28 1319.1 1481.28 Q1313.11 1481.28 1309.94 1476.7 Q1306.76 1472.09 1306.76 1463.36 Q1306.76 1455.17 1310.65 1450.31 Q1314.54 1445.42 1321.09 1445.42 Q1322.85 1445.42 1324.63 1445.77 Q1326.44 1446.12 1328.38 1446.81 Z" fill="#000000" fill-rule="evenodd" fill-opacity="1" /><path clip-path="url(#clip230)" d="M1348.69 1449.13 Q1345.07 1449.13 1343.25 1452.69 Q1341.44 1456.23 1341.44 1463.36 Q1341.44 1470.47 1343.25 1474.04 Q1345.07 1477.58 1348.69 1477.58 Q1352.32 1477.58 1354.13 1474.04 Q1355.95 1470.47 1355.95 1463.36 Q1355.95 1456.23 1354.13 1452.69 Q1352.32 1449.13 1348.69 1449.13 M1348.69 1445.42 Q1354.5 1445.42 1357.55 1450.03 Q1360.63 1454.61 1360.63 1463.36 Q1360.63 1472.09 1357.55 1476.7 Q1354.5 1481.28 1348.69 1481.28 Q1342.88 1481.28 1339.8 1476.7 Q1336.74 1472.09 1336.74 1463.36 Q1336.74 1454.61 1339.8 1450.03 Q1342.88 1445.42 1348.69 1445.42 Z" fill="#000000" fill-rule="evenodd" fill-opacity="1" /><path clip-path="url(#clip230)" d="M1652.86 1476.67 L1660.5 1476.67 L1660.5 1450.31 L1652.19 1451.98 L1652.19 1447.72 L1660.45 1446.05 L1665.13 1446.05 L1665.13 1476.67 L1672.77 1476.67 L1672.77 1480.61 L1652.86 1480.61 L1652.86 1476.67 Z" fill="#000000" fill-rule="evenodd" fill-opacity="1" /><path clip-path="url(#clip230)" d="M1692.79 1461.47 Q1689.64 1461.47 1687.79 1463.62 Q1685.96 1465.77 1685.96 1469.52 Q1685.96 1473.25 1687.79 1475.42 Q1689.64 1477.58 1692.79 1477.58 Q1695.94 1477.58 1697.77 1475.42 Q1699.62 1473.25 1699.62 1469.52 Q1699.62 1465.77 1697.77 1463.62 Q1695.94 1461.47 1692.79 1461.47 M1702.07 1446.81 L1702.07 1451.07 Q1700.31 1450.24 1698.51 1449.8 Q1696.72 1449.36 1694.97 1449.36 Q1690.34 1449.36 1687.88 1452.48 Q1685.45 1455.61 1685.1 1461.93 Q1686.47 1459.91 1688.53 1458.85 Q1690.59 1457.76 1693.07 1457.76 Q1698.28 1457.76 1701.28 1460.93 Q1704.32 1464.08 1704.32 1469.52 Q1704.32 1474.85 1701.17 1478.06 Q1698.02 1481.28 1692.79 1481.28 Q1686.79 1481.28 1683.62 1476.7 Q1680.45 1472.09 1680.45 1463.36 Q1680.45 1455.17 1684.34 1450.31 Q1688.23 1445.42 1694.78 1445.42 Q1696.54 1445.42 1698.32 1445.77 Q1700.13 1446.12 1702.07 1446.81 Z" fill="#000000" fill-rule="evenodd" fill-opacity="1" /><path clip-path="url(#clip230)" d="M1722.37 1464.2 Q1719.04 1464.2 1717.12 1465.98 Q1715.22 1467.76 1715.22 1470.89 Q1715.22 1474.01 1717.12 1475.79 Q1719.04 1477.58 1722.37 1477.58 Q1725.71 1477.58 1727.63 1475.79 Q1729.55 1473.99 1729.55 1470.89 Q1729.55 1467.76 1727.63 1465.98 Q1725.73 1464.2 1722.37 1464.2 M1717.7 1462.21 Q1714.69 1461.47 1713 1459.41 Q1711.33 1457.35 1711.33 1454.38 Q1711.33 1450.24 1714.27 1447.83 Q1717.23 1445.42 1722.37 1445.42 Q1727.53 1445.42 1730.47 1447.83 Q1733.41 1450.24 1733.41 1454.38 Q1733.41 1457.35 1731.72 1459.41 Q1730.06 1461.47 1727.07 1462.21 Q1730.45 1462.99 1732.33 1465.29 Q1734.22 1467.58 1734.22 1470.89 Q1734.22 1475.91 1731.15 1478.6 Q1728.09 1481.28 1722.37 1481.28 Q1716.65 1481.28 1713.58 1478.6 Q1710.52 1475.91 1710.52 1470.89 Q1710.52 1467.58 1712.42 1465.29 Q1714.32 1462.99 1717.7 1462.21 M1715.98 1454.82 Q1715.98 1457.51 1717.65 1459.01 Q1719.34 1460.52 1722.37 1460.52 Q1725.38 1460.52 1727.07 1459.01 Q1728.78 1457.51 1728.78 1454.82 Q1728.78 1452.14 1727.07 1450.63 Q1725.38 1449.13 1722.37 1449.13 Q1719.34 1449.13 1717.65 1450.63 Q1715.98 1452.14 1715.98 1454.82 Z" fill="#000000" fill-rule="evenodd" fill-opacity="1" /><path clip-path="url(#clip230)" d="M1752.53 1449.13 Q1748.92 1449.13 1747.09 1452.69 Q1745.29 1456.23 1745.29 1463.36 Q1745.29 1470.47 1747.09 1474.04 Q1748.92 1477.58 1752.53 1477.58 Q1756.17 1477.58 1757.97 1474.04 Q1759.8 1470.47 1759.8 1463.36 Q1759.8 1456.23 1757.97 1452.69 Q1756.17 1449.13 1752.53 1449.13 M1752.53 1445.42 Q1758.34 1445.42 1761.4 1450.03 Q1764.48 1454.61 1764.48 1463.36 Q1764.48 1472.09 1761.4 1476.7 Q1758.34 1481.28 1752.53 1481.28 Q1746.72 1481.28 1743.65 1476.7 Q1740.59 1472.09 1740.59 1463.36 Q1740.59 1454.61 1743.65 1450.03 Q1746.72 1445.42 1752.53 1445.42 Z" fill="#000000" fill-rule="evenodd" fill-opacity="1" /><path clip-path="url(#clip230)" d="M2056.71 1476.67 L2064.35 1476.67 L2064.35 1450.31 L2056.04 1451.98 L2056.04 1447.72 L2064.3 1446.05 L2068.98 1446.05 L2068.98 1476.67 L2076.61 1476.67 L2076.61 1480.61 L2056.71 1480.61 L2056.71 1476.67 Z" fill="#000000" fill-rule="evenodd" fill-opacity="1" /><path clip-path="url(#clip230)" d="M2084.88 1446.05 L2107.1 1446.05 L2107.1 1448.04 L2094.55 1480.61 L2089.67 1480.61 L2101.48 1449.98 L2084.88 1449.98 L2084.88 1446.05 Z" fill="#000000" fill-rule="evenodd" fill-opacity="1" /><path clip-path="url(#clip230)" d="M2126.22 1449.13 Q2122.61 1449.13 2120.78 1452.69 Q2118.98 1456.23 2118.98 1463.36 Q2118.98 1470.47 2120.78 1474.04 Q2122.61 1477.58 2126.22 1477.58 Q2129.86 1477.58 2131.66 1474.04 Q2133.49 1470.47 2133.49 1463.36 Q2133.49 1456.23 2131.66 1452.69 Q2129.86 1449.13 2126.22 1449.13 M2126.22 1445.42 Q2132.03 1445.42 2135.09 1450.03 Q2138.17 1454.61 2138.17 1463.36 Q2138.17 1472.09 2135.09 1476.7 Q2132.03 1481.28 2126.22 1481.28 Q2120.41 1481.28 2117.33 1476.7 Q2114.28 1472.09 2114.28 1463.36 Q2114.28 1454.61 2117.33 1450.03 Q2120.41 1445.42 2126.22 1445.42 Z" fill="#000000" fill-rule="evenodd" fill-opacity="1" /><path clip-path="url(#clip230)" d="M2156.38 1449.13 Q2152.77 1449.13 2150.94 1452.69 Q2149.14 1456.23 2149.14 1463.36 Q2149.14 1470.47 2150.94 1474.04 Q2152.77 1477.58 2156.38 1477.58 Q2160.02 1477.58 2161.82 1474.04 Q2163.65 1470.47 2163.65 1463.36 Q2163.65 1456.23 2161.82 1452.69 Q2160.02 1449.13 2156.38 1449.13 M2156.38 1445.42 Q2162.19 1445.42 2165.25 1450.03 Q2168.33 1454.61 2168.33 1463.36 Q2168.33 1472.09 2165.25 1476.7 Q2162.19 1481.28 2156.38 1481.28 Q2150.57 1481.28 2147.49 1476.7 Q2144.44 1472.09 2144.44 1463.36 Q2144.44 1454.61 2147.49 1450.03 Q2150.57 1445.42 2156.38 1445.42 Z" fill="#000000" fill-rule="evenodd" fill-opacity="1" /><path clip-path="url(#clip230)" d="M1307.58 1519.65 Q1307.58 1521.42 1306.45 1522.52 Q1305.36 1523.61 1303.97 1523.61 Q1302.98 1523.61 1302.23 1523 Q1301.53 1522.39 1301.53 1521.33 Q1301.53 1520.23 1302.36 1519.07 Q1303.2 1517.91 1305.1 1517.75 Q1303.84 1516.56 1301.85 1516.56 Q1300.85 1516.56 1300.01 1517.2 Q1299.21 1517.82 1298.76 1518.81 Q1298.27 1519.84 1297.18 1525.67 Q1296.82 1527.57 1296.5 1529.41 Q1296.18 1531.25 1295.79 1533.18 L1301.27 1533.18 Q1301.98 1533.18 1302.27 1533.21 Q1302.56 1533.24 1302.78 1533.4 Q1303.04 1533.56 1303.04 1533.92 Q1303.04 1534.82 1302.62 1535.05 Q1302.23 1535.24 1301.08 1535.24 L1295.41 1535.24 L1291.45 1556.14 Q1291.35 1556.75 1290.93 1558.68 Q1290.54 1560.59 1289.61 1563.71 Q1288.68 1566.87 1287.74 1568.73 Q1287.23 1569.8 1286.55 1570.79 Q1285.91 1571.82 1284.97 1572.86 Q1284.04 1573.89 1282.81 1574.5 Q1281.59 1575.14 1280.3 1575.14 Q1278.11 1575.14 1276.41 1573.92 Q1274.7 1572.69 1274.7 1570.6 Q1274.7 1568.83 1275.79 1567.73 Q1276.92 1566.64 1278.31 1566.64 Q1279.3 1566.64 1280.01 1567.25 Q1280.75 1567.86 1280.75 1568.93 Q1280.75 1569.38 1280.59 1569.89 Q1280.43 1570.41 1280.08 1570.99 Q1279.72 1571.6 1278.95 1572.02 Q1278.18 1572.44 1277.11 1572.5 Q1278.37 1573.69 1280.3 1573.69 Q1280.91 1573.69 1281.46 1573.44 Q1282.01 1573.21 1282.46 1572.63 Q1282.94 1572.05 1283.3 1571.47 Q1283.65 1570.92 1284.01 1569.86 Q1284.36 1568.83 1284.59 1568.06 Q1284.81 1567.28 1285.1 1565.9 Q1285.42 1564.51 1285.58 1563.68 Q1285.75 1562.87 1286.03 1561.29 L1290.96 1535.24 L1286.61 1535.24 Q1285.84 1535.24 1285.52 1535.21 Q1285.23 1535.17 1285 1535.01 Q1284.78 1534.82 1284.78 1534.43 Q1284.78 1533.82 1285.04 1533.56 Q1285.33 1533.27 1285.65 1533.24 Q1285.97 1533.18 1286.74 1533.18 L1291.32 1533.18 Q1292.86 1525.03 1293.47 1522.84 Q1294.18 1520.52 1295.28 1518.91 Q1296.37 1517.27 1297.6 1516.5 Q1298.82 1515.72 1299.82 1515.43 Q1300.85 1515.11 1301.85 1515.11 Q1304.1 1515.11 1305.84 1516.33 Q1307.58 1517.53 1307.58 1519.65 Z" fill="#000000" fill-rule="evenodd" fill-opacity="1" /><path clip-path="url(#clip230)" d="M1314.3 1578.52 Q1314.3 1571.73 1316.01 1568.03 Q1318.4 1562.53 1324.04 1562.53 Q1325.23 1562.53 1326.47 1562.87 Q1327.74 1563.19 1329.32 1564.43 Q1330.92 1565.67 1331.89 1567.7 Q1333.73 1571.62 1333.73 1578.52 Q1333.73 1585.26 1332.02 1588.93 Q1329.52 1594.3 1323.99 1594.3 Q1321.92 1594.3 1319.8 1593.24 Q1317.71 1592.18 1316.38 1589.63 Q1314.3 1585.82 1314.3 1578.52 M1318.13 1577.95 Q1318.13 1584.92 1318.63 1587.69 Q1319.19 1590.69 1320.73 1592 Q1322.28 1593.28 1323.99 1593.28 Q1325.84 1593.28 1327.38 1591.91 Q1328.93 1590.51 1329.41 1587.51 Q1329.92 1584.56 1329.9 1577.95 Q1329.9 1571.53 1329.45 1568.96 Q1328.84 1565.96 1327.22 1564.76 Q1325.62 1563.55 1323.99 1563.55 Q1323.39 1563.55 1322.73 1563.73 Q1322.1 1563.91 1321.18 1564.43 Q1320.25 1564.94 1319.53 1566.23 Q1318.83 1567.51 1318.49 1569.45 Q1318.13 1571.96 1318.13 1577.95 Z" fill="#000000" fill-rule="evenodd" fill-opacity="1" /><polyline clip-path="url(#clip232)" style="stroke:#000000; stroke-linecap:butt; stroke-linejoin:round; stroke-width:2; stroke-opacity:0.1; fill:none" points="
  262.523,1279.25 2352.76,1279.25 
  "/>
<polyline clip-path="url(#clip232)" style="stroke:#000000; stroke-linecap:butt; stroke-linejoin:round; stroke-width:2; stroke-opacity:0.1; fill:none" points="
  262.523,979.291 2352.76,979.291 
  "/>
<polyline clip-path="url(#clip232)" style="stroke:#000000; stroke-linecap:butt; stroke-linejoin:round; stroke-width:2; stroke-opacity:0.1; fill:none" points="
  262.523,679.336 2352.76,679.336 
  "/>
<polyline clip-path="url(#clip232)" style="stroke:#000000; stroke-linecap:butt; stroke-linejoin:round; stroke-width:2; stroke-opacity:0.1; fill:none" points="
  262.523,379.382 2352.76,379.382 
  "/>
<polyline clip-path="url(#clip232)" style="stroke:#000000; stroke-linecap:butt; stroke-linejoin:round; stroke-width:2; stroke-opacity:0.1; fill:none" points="
  262.523,79.4271 2352.76,79.4271 
  "/>
<polyline clip-path="url(#clip230)" style="stroke:#000000; stroke-linecap:butt; stroke-linejoin:round; stroke-width:4; stroke-opacity:1; fill:none" points="
  262.523,1418.21 262.523,47.2441 
  "/>
<polyline clip-path="url(#clip230)" style="stroke:#000000; stroke-linecap:butt; stroke-linejoin:round; stroke-width:4; stroke-opacity:1; fill:none" points="
  262.523,1279.25 281.42,1279.25 
  "/>
<polyline clip-path="url(#clip230)" style="stroke:#000000; stroke-linecap:butt; stroke-linejoin:round; stroke-width:4; stroke-opacity:1; fill:none" points="
  262.523,979.291 281.42,979.291 
  "/>
<polyline clip-path="url(#clip230)" style="stroke:#000000; stroke-linecap:butt; stroke-linejoin:round; stroke-width:4; stroke-opacity:1; fill:none" points="
  262.523,679.336 281.42,679.336 
  "/>
<polyline clip-path="url(#clip230)" style="stroke:#000000; stroke-linecap:butt; stroke-linejoin:round; stroke-width:4; stroke-opacity:1; fill:none" points="
  262.523,379.382 281.42,379.382 
  "/>
<polyline clip-path="url(#clip230)" style="stroke:#000000; stroke-linecap:butt; stroke-linejoin:round; stroke-width:4; stroke-opacity:1; fill:none" points="
  262.523,79.4271 281.42,79.4271 
  "/>
<path clip-path="url(#clip230)" d="M139.185 1265.04 Q135.574 1265.04 133.745 1268.61 Q131.94 1272.15 131.94 1279.28 Q131.94 1286.39 133.745 1289.95 Q135.574 1293.49 139.185 1293.49 Q142.819 1293.49 144.625 1289.95 Q146.454 1286.39 146.454 1279.28 Q146.454 1272.15 144.625 1268.61 Q142.819 1265.04 139.185 1265.04 M139.185 1261.34 Q144.995 1261.34 148.051 1265.95 Q151.13 1270.53 151.13 1279.28 Q151.13 1288.01 148.051 1292.61 Q144.995 1297.2 139.185 1297.2 Q133.375 1297.2 130.296 1292.61 Q127.241 1288.01 127.241 1279.28 Q127.241 1270.53 130.296 1265.95 Q133.375 1261.34 139.185 1261.34 Z" fill="#000000" fill-rule="evenodd" fill-opacity="1" /><path clip-path="url(#clip230)" d="M159.347 1290.65 L164.231 1290.65 L164.231 1296.53 L159.347 1296.53 L159.347 1290.65 Z" fill="#000000" fill-rule="evenodd" fill-opacity="1" /><path clip-path="url(#clip230)" d="M173.236 1261.97 L195.458 1261.97 L195.458 1263.96 L182.912 1296.53 L178.028 1296.53 L189.833 1265.9 L173.236 1265.9 L173.236 1261.97 Z" fill="#000000" fill-rule="evenodd" fill-opacity="1" /><path clip-path="url(#clip230)" d="M214.578 1265.04 Q210.967 1265.04 209.138 1268.61 Q207.333 1272.15 207.333 1279.28 Q207.333 1286.39 209.138 1289.95 Q210.967 1293.49 214.578 1293.49 Q218.213 1293.49 220.018 1289.95 Q221.847 1286.39 221.847 1279.28 Q221.847 1272.15 220.018 1268.61 Q218.213 1265.04 214.578 1265.04 M214.578 1261.34 Q220.388 1261.34 223.444 1265.95 Q226.523 1270.53 226.523 1279.28 Q226.523 1288.01 223.444 1292.61 Q220.388 1297.2 214.578 1297.2 Q208.768 1297.2 205.689 1292.61 Q202.634 1288.01 202.634 1279.28 Q202.634 1270.53 205.689 1265.95 Q208.768 1261.34 214.578 1261.34 Z" fill="#000000" fill-rule="evenodd" fill-opacity="1" /><path clip-path="url(#clip230)" d="M140.181 965.089 Q136.569 965.089 134.741 968.654 Q132.935 972.196 132.935 979.325 Q132.935 986.432 134.741 989.997 Q136.569 993.538 140.181 993.538 Q143.815 993.538 145.62 989.997 Q147.449 986.432 147.449 979.325 Q147.449 972.196 145.62 968.654 Q143.815 965.089 140.181 965.089 M140.181 961.386 Q145.991 961.386 149.046 965.992 Q152.125 970.575 152.125 979.325 Q152.125 988.052 149.046 992.659 Q145.991 997.242 140.181 997.242 Q134.37 997.242 131.292 992.659 Q128.236 988.052 128.236 979.325 Q128.236 970.575 131.292 965.992 Q134.37 961.386 140.181 961.386 Z" fill="#000000" fill-rule="evenodd" fill-opacity="1" /><path clip-path="url(#clip230)" d="M160.342 990.691 L165.227 990.691 L165.227 996.571 L160.342 996.571 L160.342 990.691 Z" fill="#000000" fill-rule="evenodd" fill-opacity="1" /><path clip-path="url(#clip230)" d="M174.231 962.011 L196.453 962.011 L196.453 964.001 L183.907 996.571 L179.023 996.571 L190.828 965.946 L174.231 965.946 L174.231 962.011 Z" fill="#000000" fill-rule="evenodd" fill-opacity="1" /><path clip-path="url(#clip230)" d="M205.62 962.011 L223.976 962.011 L223.976 965.946 L209.902 965.946 L209.902 974.418 Q210.921 974.071 211.939 973.909 Q212.958 973.723 213.976 973.723 Q219.763 973.723 223.143 976.895 Q226.523 980.066 226.523 985.483 Q226.523 991.061 223.05 994.163 Q219.578 997.242 213.259 997.242 Q211.083 997.242 208.814 996.871 Q206.569 996.501 204.162 995.76 L204.162 991.061 Q206.245 992.196 208.467 992.751 Q210.689 993.307 213.166 993.307 Q217.171 993.307 219.509 991.2 Q221.847 989.094 221.847 985.483 Q221.847 981.872 219.509 979.765 Q217.171 977.659 213.166 977.659 Q211.291 977.659 209.416 978.075 Q207.564 978.492 205.62 979.372 L205.62 962.011 Z" fill="#000000" fill-rule="evenodd" fill-opacity="1" /><path clip-path="url(#clip230)" d="M139.185 665.135 Q135.574 665.135 133.745 668.7 Q131.94 672.241 131.94 679.371 Q131.94 686.477 133.745 690.042 Q135.574 693.584 139.185 693.584 Q142.819 693.584 144.625 690.042 Q146.454 686.477 146.454 679.371 Q146.454 672.241 144.625 668.7 Q142.819 665.135 139.185 665.135 M139.185 661.431 Q144.995 661.431 148.051 666.038 Q151.13 670.621 151.13 679.371 Q151.13 688.098 148.051 692.704 Q144.995 697.287 139.185 697.287 Q133.375 697.287 130.296 692.704 Q127.241 688.098 127.241 679.371 Q127.241 670.621 130.296 666.038 Q133.375 661.431 139.185 661.431 Z" fill="#000000" fill-rule="evenodd" fill-opacity="1" /><path clip-path="url(#clip230)" d="M159.347 690.736 L164.231 690.736 L164.231 696.616 L159.347 696.616 L159.347 690.736 Z" fill="#000000" fill-rule="evenodd" fill-opacity="1" /><path clip-path="url(#clip230)" d="M184.416 680.204 Q181.083 680.204 179.162 681.987 Q177.264 683.769 177.264 686.894 Q177.264 690.019 179.162 691.801 Q181.083 693.584 184.416 693.584 Q187.75 693.584 189.671 691.801 Q191.592 689.996 191.592 686.894 Q191.592 683.769 189.671 681.987 Q187.773 680.204 184.416 680.204 M179.741 678.213 Q176.731 677.473 175.041 675.412 Q173.375 673.352 173.375 670.389 Q173.375 666.246 176.315 663.838 Q179.278 661.431 184.416 661.431 Q189.578 661.431 192.518 663.838 Q195.458 666.246 195.458 670.389 Q195.458 673.352 193.768 675.412 Q192.102 677.473 189.115 678.213 Q192.495 679 194.37 681.292 Q196.268 683.584 196.268 686.894 Q196.268 691.917 193.19 694.602 Q190.134 697.287 184.416 697.287 Q178.699 697.287 175.62 694.602 Q172.565 691.917 172.565 686.894 Q172.565 683.584 174.463 681.292 Q176.361 679 179.741 678.213 M178.028 670.829 Q178.028 673.514 179.694 675.019 Q181.384 676.524 184.416 676.524 Q187.426 676.524 189.115 675.019 Q190.828 673.514 190.828 670.829 Q190.828 668.144 189.115 666.639 Q187.426 665.135 184.416 665.135 Q181.384 665.135 179.694 666.639 Q178.028 668.144 178.028 670.829 Z" fill="#000000" fill-rule="evenodd" fill-opacity="1" /><path clip-path="url(#clip230)" d="M214.578 665.135 Q210.967 665.135 209.138 668.7 Q207.333 672.241 207.333 679.371 Q207.333 686.477 209.138 690.042 Q210.967 693.584 214.578 693.584 Q218.213 693.584 220.018 690.042 Q221.847 686.477 221.847 679.371 Q221.847 672.241 220.018 668.7 Q218.213 665.135 214.578 665.135 M214.578 661.431 Q220.388 661.431 223.444 666.038 Q226.523 670.621 226.523 679.371 Q226.523 688.098 223.444 692.704 Q220.388 697.287 214.578 697.287 Q208.768 697.287 205.689 692.704 Q202.634 688.098 202.634 679.371 Q202.634 670.621 205.689 666.038 Q208.768 661.431 214.578 661.431 Z" fill="#000000" fill-rule="evenodd" fill-opacity="1" /><path clip-path="url(#clip230)" d="M140.181 365.18 Q136.569 365.18 134.741 368.745 Q132.935 372.287 132.935 379.416 Q132.935 386.523 134.741 390.088 Q136.569 393.629 140.181 393.629 Q143.815 393.629 145.62 390.088 Q147.449 386.523 147.449 379.416 Q147.449 372.287 145.62 368.745 Q143.815 365.18 140.181 365.18 M140.181 361.477 Q145.991 361.477 149.046 366.083 Q152.125 370.666 152.125 379.416 Q152.125 388.143 149.046 392.75 Q145.991 397.333 140.181 397.333 Q134.37 397.333 131.292 392.75 Q128.236 388.143 128.236 379.416 Q128.236 370.666 131.292 366.083 Q134.37 361.477 140.181 361.477 Z" fill="#000000" fill-rule="evenodd" fill-opacity="1" /><path clip-path="url(#clip230)" d="M160.342 390.782 L165.227 390.782 L165.227 396.662 L160.342 396.662 L160.342 390.782 Z" fill="#000000" fill-rule="evenodd" fill-opacity="1" /><path clip-path="url(#clip230)" d="M185.412 380.25 Q182.078 380.25 180.157 382.032 Q178.259 383.814 178.259 386.939 Q178.259 390.064 180.157 391.847 Q182.078 393.629 185.412 393.629 Q188.745 393.629 190.666 391.847 Q192.588 390.041 192.588 386.939 Q192.588 383.814 190.666 382.032 Q188.768 380.25 185.412 380.25 M180.736 378.259 Q177.727 377.518 176.037 375.458 Q174.37 373.398 174.37 370.435 Q174.37 366.291 177.31 363.884 Q180.273 361.477 185.412 361.477 Q190.574 361.477 193.514 363.884 Q196.453 366.291 196.453 370.435 Q196.453 373.398 194.764 375.458 Q193.097 377.518 190.111 378.259 Q193.49 379.046 195.365 381.338 Q197.264 383.629 197.264 386.939 Q197.264 391.963 194.185 394.648 Q191.129 397.333 185.412 397.333 Q179.694 397.333 176.616 394.648 Q173.56 391.963 173.56 386.939 Q173.56 383.629 175.458 381.338 Q177.356 379.046 180.736 378.259 M179.023 370.875 Q179.023 373.56 180.69 375.064 Q182.379 376.569 185.412 376.569 Q188.421 376.569 190.111 375.064 Q191.824 373.56 191.824 370.875 Q191.824 368.19 190.111 366.685 Q188.421 365.18 185.412 365.18 Q182.379 365.18 180.69 366.685 Q179.023 368.19 179.023 370.875 Z" fill="#000000" fill-rule="evenodd" fill-opacity="1" /><path clip-path="url(#clip230)" d="M205.62 362.102 L223.976 362.102 L223.976 366.037 L209.902 366.037 L209.902 374.509 Q210.921 374.162 211.939 374 Q212.958 373.814 213.976 373.814 Q219.763 373.814 223.143 376.986 Q226.523 380.157 226.523 385.574 Q226.523 391.152 223.05 394.254 Q219.578 397.333 213.259 397.333 Q211.083 397.333 208.814 396.963 Q206.569 396.592 204.162 395.851 L204.162 391.152 Q206.245 392.287 208.467 392.842 Q210.689 393.398 213.166 393.398 Q217.171 393.398 219.509 391.291 Q221.847 389.185 221.847 385.574 Q221.847 381.963 219.509 379.856 Q217.171 377.75 213.166 377.75 Q211.291 377.75 209.416 378.166 Q207.564 378.583 205.62 379.463 L205.62 362.102 Z" fill="#000000" fill-rule="evenodd" fill-opacity="1" /><path clip-path="url(#clip230)" d="M139.185 65.2258 Q135.574 65.2258 133.745 68.7906 Q131.94 72.3322 131.94 79.4618 Q131.94 86.5683 133.745 90.1331 Q135.574 93.6747 139.185 93.6747 Q142.819 93.6747 144.625 90.1331 Q146.454 86.5683 146.454 79.4618 Q146.454 72.3322 144.625 68.7906 Q142.819 65.2258 139.185 65.2258 M139.185 61.5221 Q144.995 61.5221 148.051 66.1286 Q151.13 70.7119 151.13 79.4618 Q151.13 88.1886 148.051 92.7951 Q144.995 97.3784 139.185 97.3784 Q133.375 97.3784 130.296 92.7951 Q127.241 88.1886 127.241 79.4618 Q127.241 70.7119 130.296 66.1286 Q133.375 61.5221 139.185 61.5221 Z" fill="#000000" fill-rule="evenodd" fill-opacity="1" /><path clip-path="url(#clip230)" d="M159.347 90.8275 L164.231 90.8275 L164.231 96.7071 L159.347 96.7071 L159.347 90.8275 Z" fill="#000000" fill-rule="evenodd" fill-opacity="1" /><path clip-path="url(#clip230)" d="M174.555 95.9895 L174.555 91.7303 Q176.315 92.5636 178.12 93.0034 Q179.926 93.4432 181.662 93.4432 Q186.291 93.4432 188.722 90.3414 Q191.176 87.2164 191.523 80.8739 Q190.18 82.8646 188.12 83.9294 Q186.06 84.9942 183.56 84.9942 Q178.375 84.9942 175.342 81.8692 Q172.333 78.7211 172.333 73.2813 Q172.333 67.9573 175.481 64.7397 Q178.629 61.5221 183.861 61.5221 Q189.856 61.5221 193.004 66.1286 Q196.176 70.7119 196.176 79.4618 Q196.176 87.6331 192.287 92.5173 Q188.421 97.3784 181.87 97.3784 Q180.111 97.3784 178.305 97.0312 Q176.5 96.684 174.555 95.9895 M183.861 81.3368 Q187.009 81.3368 188.838 79.184 Q190.69 77.0313 190.69 73.2813 Q190.69 69.5545 188.838 67.4017 Q187.009 65.2258 183.861 65.2258 Q180.713 65.2258 178.861 67.4017 Q177.032 69.5545 177.032 73.2813 Q177.032 77.0313 178.861 79.184 Q180.713 81.3368 183.861 81.3368 Z" fill="#000000" fill-rule="evenodd" fill-opacity="1" /><path clip-path="url(#clip230)" d="M214.578 65.2258 Q210.967 65.2258 209.138 68.7906 Q207.333 72.3322 207.333 79.4618 Q207.333 86.5683 209.138 90.1331 Q210.967 93.6747 214.578 93.6747 Q218.213 93.6747 220.018 90.1331 Q221.847 86.5683 221.847 79.4618 Q221.847 72.3322 220.018 68.7906 Q218.213 65.2258 214.578 65.2258 M214.578 61.5221 Q220.388 61.5221 223.444 66.1286 Q226.523 70.7119 226.523 79.4618 Q226.523 88.1886 223.444 92.7951 Q220.388 97.3784 214.578 97.3784 Q208.768 97.3784 205.689 92.7951 Q202.634 88.1886 202.634 79.4618 Q202.634 70.7119 205.689 66.1286 Q208.768 61.5221 214.578 61.5221 Z" fill="#000000" fill-rule="evenodd" fill-opacity="1" /><path clip-path="url(#clip230)" d="M15.5278 734.751 L16.4521 735.314 Q14.9416 738.809 12.5294 743.16 Q14.9416 747.511 16.4521 751.005 L15.5278 751.546 Q12.2138 747.736 9.66631 743.16 Q12.2363 738.538 15.5278 734.751 Z" fill="#000000" fill-rule="evenodd" fill-opacity="1" /><path clip-path="url(#clip230)" d="M51.783 729.849 Q55.0358 729.849 58.2886 731.524 Q61.5414 733.199 64.0535 735.936 Q66.5333 738.674 68.1436 742.41 Q69.7539 746.146 69.8827 750.043 L79.7055 752.555 Q82.0888 753.038 82.3464 753.295 Q82.6041 753.553 82.6041 753.939 Q82.6041 754.745 81.8633 754.745 Q81.6379 754.745 76.0663 753.295 L69.8827 751.749 Q69.5607 757.611 66.1791 761.025 Q62.7975 764.439 57.9344 764.439 Q54.6494 764.439 51.3966 762.764 Q48.1116 761.057 45.6317 758.319 Q43.1519 755.55 41.5738 751.814 Q39.9957 748.078 39.8669 744.245 L24.6335 740.413 Q23.7639 740.22 23.5385 740.059 Q23.3131 739.898 23.3131 739.415 Q23.3131 739.06 23.4741 738.867 Q23.6351 738.674 23.7962 738.674 L23.9572 738.642 L24.8912 738.835 L39.8669 742.539 Q40.0923 739.254 41.2517 736.709 Q42.4111 734.165 44.1503 732.716 Q45.8572 731.266 47.7895 730.558 Q49.7219 729.849 51.783 729.849 M41.3161 744.632 Q41.6382 748.175 43.3773 751.17 Q45.1164 754.165 47.6929 756.097 Q50.2372 758.03 53.2967 759.092 Q56.3241 760.155 59.3192 760.155 Q61.6702 760.155 63.4738 759.382 Q65.2773 758.577 66.3079 757.257 Q67.3063 755.936 67.8538 754.487 Q68.3691 753.005 68.4335 751.427 L41.3161 744.632 M50.3982 734.165 Q46.2114 734.165 43.8604 736.58 Q41.5094 738.996 41.3161 742.925 L68.4335 749.72 Q68.208 746.854 67.0164 744.342 Q65.7926 741.798 63.9891 739.962 Q62.1533 738.126 59.8989 736.806 Q57.6123 735.485 55.1969 734.841 Q52.7492 734.165 50.3982 734.165 Z" fill="#000000" fill-rule="evenodd" fill-opacity="1" /><path clip-path="url(#clip230)" d="M74.3907 723.149 L72.9479 723.149 Q72.9479 717.603 69.9946 714.74 Q69.9946 713.951 70.175 713.815 Q70.3553 713.68 71.1895 713.68 L97.0926 713.68 Q98.4678 713.68 98.8962 713.004 Q99.3245 712.327 99.3245 709.374 L99.3245 707.909 L100.745 707.909 Q100.61 709.532 100.61 715.393 Q100.61 721.255 100.745 722.855 L99.3245 722.855 L99.3245 721.39 Q99.3245 718.482 98.9187 717.783 Q98.4904 717.084 97.0926 717.084 L73.1733 717.084 Q74.3907 719.496 74.3907 723.149 Z" fill="#000000" fill-rule="evenodd" fill-opacity="1" /><polyline clip-path="url(#clip232)" style="stroke:#009af9; stroke-linecap:butt; stroke-linejoin:round; stroke-width:4; stroke-opacity:1; fill:none" points="
  321.68,613.013 341.599,513.845 361.517,805.45 381.435,957.574 401.354,596.799 421.272,985.85 441.19,1124 461.109,758.763 481.027,960.723 500.945,938.543 
  520.864,855.648 540.782,757.232 560.701,581.848 580.619,758.398 600.537,718.219 620.456,705.042 640.374,735.509 660.292,585.719 680.211,729.06 700.129,751.018 
  720.048,908.904 739.966,621.354 759.884,636.148 779.803,1272.09 799.721,844.702 819.639,885.109 839.558,825.503 859.476,911.441 879.394,628.539 899.313,956.868 
  919.231,763.545 939.15,649.754 959.068,630.084 978.986,727.119 998.905,490.45 1018.82,1013.78 1038.74,825.87 1058.66,609.708 1078.58,839.074 1098.5,926.24 
  1118.41,584.368 1138.33,572.807 1158.25,722.341 1178.17,789.57 1198.09,661.276 1218.01,929.499 1237.93,383.061 1257.84,497.178 1277.76,1036.01 1297.68,692.209 
  1317.6,1074.43 1337.52,291.718 1357.44,770.688 1377.35,613.017 1397.27,1036.77 1417.19,482.264 1437.11,978.183 1457.03,490.798 1476.95,515.253 1496.86,817.21 
  1516.78,493.318 1536.7,751.201 1556.62,511.572 1576.54,672.094 1596.46,1067.89 1616.37,519.718 1636.29,830.956 1656.21,894.004 1676.13,741.542 1696.05,900.217 
  1715.97,982.548 1735.88,678.523 1755.8,688.319 1775.72,817.932 1795.64,869.065 1815.56,873.509 1835.48,851.942 1855.39,657.983 1875.31,560.301 1895.23,971.006 
  1915.15,830.421 1935.07,686.275 1954.99,798.151 1974.9,620.661 1994.82,514.853 2014.74,848.813 2034.66,928.173 2054.58,735.788 2074.5,1171.42 2094.41,948.162 
  2114.33,813.375 2134.25,746.968 2154.17,696.692 2174.09,938.567 2194.01,935.879 2213.92,1077.35 2233.84,595.525 2253.76,724.279 2273.68,514.962 2293.6,1162.27 
  
  "/>
<polyline clip-path="url(#clip232)" style="stroke:#e26f46; stroke-linecap:butt; stroke-linejoin:round; stroke-width:4; stroke-opacity:1; fill:none" points="
  321.68,460.721 341.599,729.42 361.517,870.174 381.435,883.645 401.354,571.959 421.272,1170.99 441.19,1340.68 461.109,674.811 481.027,919.834 500.945,850.125 
  520.864,1086.73 540.782,727.424 560.701,726.967 580.619,881.266 600.537,860.159 620.456,897.769 640.374,435.052 660.292,141.372 680.211,766.838 700.129,760.336 
  720.048,1144.15 739.966,442.908 759.884,805.23 779.803,1379.41 799.721,787.859 819.639,953.571 839.558,996.34 859.476,511.108 879.394,467.791 899.313,907.311 
  919.231,881.847 939.15,473.229 959.068,443.738 978.986,778.395 998.905,661.488 1018.82,990.832 1038.74,733.292 1058.66,822.674 1078.58,854.477 1098.5,853.688 
  1118.41,920.939 1138.33,495.883 1158.25,778.777 1178.17,573.241 1198.09,463.618 1218.01,767.745 1237.93,86.045 1257.84,503.171 1277.76,709.495 1297.68,908.513 
  1317.6,1029 1337.52,125.608 1357.44,711.225 1377.35,552.856 1397.27,937.763 1417.19,355.037 1437.11,1034.44 1457.03,509.598 1476.95,564.453 1496.86,721.913 
  1516.78,495.098 1536.7,991.705 1556.62,625.321 1576.54,642.83 1596.46,822.198 1616.37,651.868 1636.29,973.094 1656.21,1115.21 1676.13,761.237 1696.05,1176.95 
  1715.97,1015.46 1735.88,260.102 1755.8,823.785 1775.72,862.993 1795.64,1099.87 1815.56,1125.57 1835.48,697.591 1855.39,983.95 1875.31,296.425 1895.23,886.817 
  1915.15,1003.42 1935.07,1170.42 1954.99,1050.77 1974.9,617.645 1994.82,302.007 2014.74,521.51 2034.66,1041.25 2054.58,622.851 2074.5,1255.07 2094.41,600.296 
  2114.33,901.775 2134.25,728.633 2154.17,782.808 2174.09,827.227 2194.01,830.401 2213.92,1119.64 2233.84,866.628 2253.76,750.548 2273.68,550.194 2293.6,1229.23 
  
  "/>
<polyline clip-path="url(#clip232)" style="stroke:#3da44d; stroke-linecap:butt; stroke-linejoin:round; stroke-width:4; stroke-opacity:1; fill:none" points="
  321.68,602.627 341.599,535.242 361.517,841.469 381.435,942.934 401.354,600.406 421.272,1022.68 441.19,1054.17 461.109,792.787 481.027,952.35 500.945,971.366 
  520.864,829.358 540.782,766.501 560.701,542.045 580.619,765.31 600.537,742.946 620.456,763.171 640.374,708.209 660.292,544.243 680.211,729.06 700.129,760.254 
  720.048,932.628 739.966,690.716 759.884,680.855 779.803,1309.89 799.721,833.408 819.639,928.731 839.558,822.614 859.476,882.854 879.394,605.977 899.313,960.877 
  919.231,736.364 939.15,643.521 959.068,629.82 978.986,719.406 998.905,452.322 1018.82,1013.84 1038.74,845.045 1058.66,590.932 1078.58,841.694 1098.5,919.76 
  1118.41,573.77 1138.33,544.662 1158.25,725.583 1178.17,753.725 1198.09,628.291 1218.01,918.355 1237.93,380.417 1257.84,505.73 1277.76,1024.74 1297.68,692.402 
  1317.6,1073.85 1337.52,290.836 1357.44,770.619 1377.35,604.078 1397.27,1004.93 1417.19,487.926 1437.11,978.391 1457.03,525.429 1476.95,511.593 1496.86,789.442 
  1516.78,490.272 1536.7,732.25 1556.62,510.527 1576.54,686.867 1596.46,1056.05 1616.37,515.785 1636.29,825.082 1656.21,891.423 1676.13,715.501 1696.05,929.295 
  1715.97,996.006 1735.88,657.515 1755.8,701.201 1775.72,783.431 1795.64,816.778 1815.56,845.33 1835.48,892.452 1855.39,641.441 1875.31,549.269 1895.23,1005.61 
  1915.15,808.939 1935.07,708.781 1954.99,821.534 1974.9,637.002 1994.82,589.26 2014.74,846.077 2034.66,931.963 2054.58,791.76 2074.5,1168.24 2094.41,940.712 
  2114.33,801.695 2134.25,762.197 2154.17,657.175 2174.09,958.141 2194.01,936.466 2213.92,1022.83 2233.84,611.877 2253.76,776.133 2273.68,535.574 2293.6,1214.26 
  
  "/>
<polyline clip-path="url(#clip232)" style="stroke:#c271d2; stroke-linecap:butt; stroke-linejoin:round; stroke-width:4; stroke-opacity:1; fill:none" points="
  321.68,766.934 2293.6,766.934 
  "/>
<path clip-path="url(#clip230)" d="
M1769.56 352.143 L2283.08 352.143 L2283.08 92.9429 L1769.56 92.9429  Z
  " fill="#ffffff" fill-rule="evenodd" fill-opacity="1"/>
<polyline clip-path="url(#clip230)" style="stroke:#000000; stroke-linecap:butt; stroke-linejoin:round; stroke-width:4; stroke-opacity:1; fill:none" points="
  1769.56,352.143 2283.08,352.143 2283.08,92.9429 1769.56,92.9429 1769.56,352.143 
  "/>
<polyline clip-path="url(#clip230)" style="stroke:#009af9; stroke-linecap:butt; stroke-linejoin:round; stroke-width:4; stroke-opacity:1; fill:none" points="
  1792.79,144.783 1932.14,144.783 
  "/>
<path clip-path="url(#clip230)" d="M1955.36 127.503 L1962.33 127.503 L1971.15 151.021 L1980.01 127.503 L1986.98 127.503 L1986.98 162.063 L1982.42 162.063 L1982.42 131.716 L1973.51 155.419 L1968.81 155.419 L1959.9 131.716 L1959.9 162.063 L1955.36 162.063 L1955.36 127.503 Z" fill="#000000" fill-rule="evenodd" fill-opacity="1" /><path clip-path="url(#clip230)" d="M1996.26 127.503 L2000.94 127.503 L2000.94 158.128 L2017.77 158.128 L2017.77 162.063 L1996.26 162.063 L1996.26 127.503 Z" fill="#000000" fill-rule="evenodd" fill-opacity="1" /><path clip-path="url(#clip230)" d="M2022.67 127.503 L2044.53 127.503 L2044.53 131.438 L2027.35 131.438 L2027.35 141.67 L2043.81 141.67 L2043.81 145.605 L2027.35 145.605 L2027.35 158.128 L2044.94 158.128 L2044.94 162.063 L2022.67 162.063 L2022.67 127.503 Z" fill="#000000" fill-rule="evenodd" fill-opacity="1" /><polyline clip-path="url(#clip230)" style="stroke:#e26f46; stroke-linecap:butt; stroke-linejoin:round; stroke-width:4; stroke-opacity:1; fill:none" points="
  1792.79,196.623 1932.14,196.623 
  "/>
<path clip-path="url(#clip230)" d="M1955.36 179.343 L1975.22 179.343 L1975.22 183.278 L1960.04 183.278 L1960.04 193.463 L1973.74 193.463 L1973.74 197.398 L1960.04 197.398 L1960.04 213.903 L1955.36 213.903 L1955.36 179.343 Z" fill="#000000" fill-rule="evenodd" fill-opacity="1" /><path clip-path="url(#clip230)" d="M1982.63 179.343 L2002.49 179.343 L2002.49 183.278 L1987.3 183.278 L1987.3 193.463 L2001.01 193.463 L2001.01 197.398 L1987.3 197.398 L1987.3 213.903 L1982.63 213.903 L1982.63 179.343 Z" fill="#000000" fill-rule="evenodd" fill-opacity="1" /><path clip-path="url(#clip230)" d="M2004.27 179.343 L2033.51 179.343 L2033.51 183.278 L2021.24 183.278 L2021.24 213.903 L2016.54 213.903 L2016.54 183.278 L2004.27 183.278 L2004.27 179.343 Z" fill="#000000" fill-rule="evenodd" fill-opacity="1" /><path clip-path="url(#clip230)" d="M2074.46 198.255 L2074.46 213.903 L2070.2 213.903 L2070.2 198.394 Q2070.2 194.713 2068.76 192.885 Q2067.33 191.056 2064.46 191.056 Q2061.01 191.056 2059.02 193.255 Q2057.03 195.454 2057.03 199.25 L2057.03 213.903 L2052.74 213.903 L2052.74 177.885 L2057.03 177.885 L2057.03 192.005 Q2058.55 189.667 2060.61 188.51 Q2062.7 187.352 2065.41 187.352 Q2069.87 187.352 2072.17 190.13 Q2074.46 192.885 2074.46 198.255 Z" fill="#000000" fill-rule="evenodd" fill-opacity="1" /><path clip-path="url(#clip230)" d="M2094.73 200.871 Q2089.57 200.871 2087.58 202.051 Q2085.59 203.232 2085.59 206.079 Q2085.59 208.347 2087.07 209.69 Q2088.58 211.009 2091.15 211.009 Q2094.69 211.009 2096.82 208.509 Q2098.97 205.986 2098.97 201.82 L2098.97 200.871 L2094.73 200.871 M2103.23 199.111 L2103.23 213.903 L2098.97 213.903 L2098.97 209.968 Q2097.51 212.329 2095.34 213.463 Q2093.16 214.574 2090.01 214.574 Q2086.03 214.574 2083.67 212.352 Q2081.33 210.107 2081.33 206.357 Q2081.33 201.982 2084.25 199.759 Q2087.19 197.537 2093 197.537 L2098.97 197.537 L2098.97 197.121 Q2098.97 194.181 2097.03 192.584 Q2095.1 190.963 2091.61 190.963 Q2089.39 190.963 2087.28 191.496 Q2085.17 192.028 2083.23 193.093 L2083.23 189.158 Q2085.57 188.255 2087.77 187.815 Q2089.97 187.352 2092.05 187.352 Q2097.67 187.352 2100.45 190.269 Q2103.23 193.185 2103.23 199.111 Z" fill="#000000" fill-rule="evenodd" fill-opacity="1" /><path clip-path="url(#clip230)" d="M2133.55 198.255 L2133.55 213.903 L2129.29 213.903 L2129.29 198.394 Q2129.29 194.713 2127.86 192.885 Q2126.42 191.056 2123.55 191.056 Q2120.1 191.056 2118.11 193.255 Q2116.12 195.454 2116.12 199.25 L2116.12 213.903 L2111.84 213.903 L2111.84 187.977 L2116.12 187.977 L2116.12 192.005 Q2117.65 189.667 2119.71 188.51 Q2121.79 187.352 2124.5 187.352 Q2128.97 187.352 2131.26 190.13 Q2133.55 192.885 2133.55 198.255 Z" fill="#000000" fill-rule="evenodd" fill-opacity="1" /><path clip-path="url(#clip230)" d="M2163.6 198.255 L2163.6 213.903 L2159.34 213.903 L2159.34 198.394 Q2159.34 194.713 2157.91 192.885 Q2156.47 191.056 2153.6 191.056 Q2150.15 191.056 2148.16 193.255 Q2146.17 195.454 2146.17 199.25 L2146.17 213.903 L2141.89 213.903 L2141.89 187.977 L2146.17 187.977 L2146.17 192.005 Q2147.7 189.667 2149.76 188.51 Q2151.84 187.352 2154.55 187.352 Q2159.02 187.352 2161.31 190.13 Q2163.6 192.885 2163.6 198.255 Z" fill="#000000" fill-rule="evenodd" fill-opacity="1" /><path clip-path="url(#clip230)" d="M2172.1 187.977 L2176.35 187.977 L2176.35 213.903 L2172.1 213.903 L2172.1 187.977 M2172.1 177.885 L2176.35 177.885 L2176.35 183.278 L2172.1 183.278 L2172.1 177.885 Z" fill="#000000" fill-rule="evenodd" fill-opacity="1" /><path clip-path="url(#clip230)" d="M2206.82 198.255 L2206.82 213.903 L2202.56 213.903 L2202.56 198.394 Q2202.56 194.713 2201.12 192.885 Q2199.69 191.056 2196.82 191.056 Q2193.37 191.056 2191.38 193.255 Q2189.39 195.454 2189.39 199.25 L2189.39 213.903 L2185.1 213.903 L2185.1 187.977 L2189.39 187.977 L2189.39 192.005 Q2190.91 189.667 2192.97 188.51 Q2195.06 187.352 2197.77 187.352 Q2202.23 187.352 2204.53 190.13 Q2206.82 192.885 2206.82 198.255 Z" fill="#000000" fill-rule="evenodd" fill-opacity="1" /><path clip-path="url(#clip230)" d="M2232.37 200.639 Q2232.37 196.01 2230.45 193.463 Q2228.55 190.917 2225.1 190.917 Q2221.68 190.917 2219.76 193.463 Q2217.86 196.01 2217.86 200.639 Q2217.86 205.246 2219.76 207.792 Q2221.68 210.338 2225.1 210.338 Q2228.55 210.338 2230.45 207.792 Q2232.37 205.246 2232.37 200.639 M2236.63 210.685 Q2236.63 217.306 2233.69 220.523 Q2230.75 223.764 2224.69 223.764 Q2222.44 223.764 2220.45 223.417 Q2218.46 223.093 2216.59 222.398 L2216.59 218.255 Q2218.46 219.273 2220.29 219.759 Q2222.12 220.245 2224.02 220.245 Q2228.21 220.245 2230.29 218.046 Q2232.37 215.871 2232.37 211.449 L2232.37 209.343 Q2231.05 211.634 2228.99 212.769 Q2226.93 213.903 2224.06 213.903 Q2219.29 213.903 2216.38 210.269 Q2213.46 206.634 2213.46 200.639 Q2213.46 194.621 2216.38 190.986 Q2219.29 187.352 2224.06 187.352 Q2226.93 187.352 2228.99 188.486 Q2231.05 189.621 2232.37 191.912 L2232.37 187.977 L2236.63 187.977 L2236.63 210.685 Z" fill="#000000" fill-rule="evenodd" fill-opacity="1" /><polyline clip-path="url(#clip230)" style="stroke:#3da44d; stroke-linecap:butt; stroke-linejoin:round; stroke-width:4; stroke-opacity:1; fill:none" points="
  1792.79,248.463 1932.14,248.463 
  "/>
<path clip-path="url(#clip230)" d="M1955.36 231.183 L1975.22 231.183 L1975.22 235.118 L1960.04 235.118 L1960.04 245.303 L1973.74 245.303 L1973.74 249.238 L1960.04 249.238 L1960.04 265.743 L1955.36 265.743 L1955.36 231.183 Z" fill="#000000" fill-rule="evenodd" fill-opacity="1" /><path clip-path="url(#clip230)" d="M1982.63 231.183 L2002.49 231.183 L2002.49 235.118 L1987.3 235.118 L1987.3 245.303 L2001.01 245.303 L2001.01 249.238 L1987.3 249.238 L1987.3 265.743 L1982.63 265.743 L1982.63 231.183 Z" fill="#000000" fill-rule="evenodd" fill-opacity="1" /><path clip-path="url(#clip230)" d="M2004.27 231.183 L2033.51 231.183 L2033.51 235.118 L2021.24 235.118 L2021.24 265.743 L2016.54 265.743 L2016.54 235.118 L2004.27 235.118 L2004.27 231.183 Z" fill="#000000" fill-rule="evenodd" fill-opacity="1" /><path clip-path="url(#clip230)" d="M2067.93 243.799 Q2067.21 243.382 2066.35 243.197 Q2065.52 242.988 2064.5 242.988 Q2060.89 242.988 2058.95 245.35 Q2057.03 247.687 2057.03 252.086 L2057.03 265.743 L2052.74 265.743 L2052.74 239.817 L2057.03 239.817 L2057.03 243.845 Q2058.37 241.484 2060.52 240.35 Q2062.67 239.192 2065.75 239.192 Q2066.19 239.192 2066.73 239.262 Q2067.26 239.308 2067.91 239.424 L2067.93 243.799 Z" fill="#000000" fill-rule="evenodd" fill-opacity="1" /><path clip-path="url(#clip230)" d="M2093.53 251.715 L2093.53 253.799 L2073.95 253.799 Q2074.23 258.197 2076.59 260.511 Q2078.97 262.803 2083.21 262.803 Q2085.66 262.803 2087.95 262.201 Q2090.27 261.599 2092.54 260.396 L2092.54 264.423 Q2090.24 265.396 2087.84 265.905 Q2085.43 266.414 2082.95 266.414 Q2076.75 266.414 2073.11 262.803 Q2069.5 259.192 2069.5 253.035 Q2069.5 246.669 2072.93 242.942 Q2076.38 239.192 2082.21 239.192 Q2087.44 239.192 2090.48 242.572 Q2093.53 245.928 2093.53 251.715 M2089.27 250.465 Q2089.23 246.97 2087.3 244.887 Q2085.41 242.803 2082.26 242.803 Q2078.69 242.803 2076.54 244.817 Q2074.41 246.831 2074.09 250.488 L2089.27 250.465 Z" fill="#000000" fill-rule="evenodd" fill-opacity="1" /><path clip-path="url(#clip230)" d="M2119.18 240.813 L2119.18 244.794 Q2117.37 243.799 2115.54 243.312 Q2113.74 242.803 2111.89 242.803 Q2107.74 242.803 2105.45 245.442 Q2103.16 248.058 2103.16 252.803 Q2103.16 257.549 2105.45 260.187 Q2107.74 262.803 2111.89 262.803 Q2113.74 262.803 2115.54 262.317 Q2117.37 261.808 2119.18 260.812 L2119.18 264.748 Q2117.4 265.581 2115.48 265.998 Q2113.58 266.414 2111.42 266.414 Q2105.57 266.414 2102.12 262.734 Q2098.67 259.053 2098.67 252.803 Q2098.67 246.461 2102.14 242.826 Q2105.64 239.192 2111.7 239.192 Q2113.67 239.192 2115.54 239.609 Q2117.42 240.002 2119.18 240.813 Z" fill="#000000" fill-rule="evenodd" fill-opacity="1" /><path clip-path="url(#clip230)" d="M2130.8 232.456 L2130.8 239.817 L2139.57 239.817 L2139.57 243.127 L2130.8 243.127 L2130.8 257.201 Q2130.8 260.373 2131.66 261.275 Q2132.54 262.178 2135.2 262.178 L2139.57 262.178 L2139.57 265.743 L2135.2 265.743 Q2130.27 265.743 2128.39 263.914 Q2126.52 262.062 2126.52 257.201 L2126.52 243.127 L2123.39 243.127 L2123.39 239.817 L2126.52 239.817 L2126.52 232.456 L2130.8 232.456 Z" fill="#000000" fill-rule="evenodd" fill-opacity="1" /><polyline clip-path="url(#clip230)" style="stroke:#c271d2; stroke-linecap:butt; stroke-linejoin:round; stroke-width:4; stroke-opacity:1; fill:none" points="
  1792.79,300.303 1932.14,300.303 
  "/>
<path clip-path="url(#clip230)" d="M1955.36 283.023 L1977.21 283.023 L1977.21 286.958 L1960.04 286.958 L1960.04 297.19 L1976.49 297.19 L1976.49 301.125 L1960.04 301.125 L1960.04 313.648 L1977.63 313.648 L1977.63 317.583 L1955.36 317.583 L1955.36 283.023 Z" fill="#000000" fill-rule="evenodd" fill-opacity="1" /><path clip-path="url(#clip230)" d="M2006.68 291.657 L1997.3 304.273 L2007.17 317.583 L2002.14 317.583 L1994.6 307.398 L1987.05 317.583 L1982.03 317.583 L1992.1 304.018 L1982.88 291.657 L1987.91 291.657 L1994.78 300.893 L2001.66 291.657 L2006.68 291.657 Z" fill="#000000" fill-rule="evenodd" fill-opacity="1" /><path clip-path="url(#clip230)" d="M2017.3 313.694 L2017.3 327.444 L2013.02 327.444 L2013.02 291.657 L2017.3 291.657 L2017.3 295.592 Q2018.65 293.278 2020.68 292.166 Q2022.74 291.032 2025.59 291.032 Q2030.31 291.032 2033.25 294.782 Q2036.22 298.532 2036.22 304.643 Q2036.22 310.754 2033.25 314.504 Q2030.31 318.254 2025.59 318.254 Q2022.74 318.254 2020.68 317.143 Q2018.65 316.009 2017.3 313.694 M2031.79 304.643 Q2031.79 299.944 2029.85 297.282 Q2027.93 294.597 2024.55 294.597 Q2021.17 294.597 2019.23 297.282 Q2017.3 299.944 2017.3 304.643 Q2017.3 309.342 2019.23 312.027 Q2021.17 314.689 2024.55 314.689 Q2027.93 314.689 2029.85 312.027 Q2031.79 309.342 2031.79 304.643 Z" fill="#000000" fill-rule="evenodd" fill-opacity="1" /><path clip-path="url(#clip230)" d="M2065.45 303.555 L2065.45 305.639 L2045.87 305.639 Q2046.15 310.037 2048.51 312.351 Q2050.89 314.643 2055.13 314.643 Q2057.58 314.643 2059.87 314.041 Q2062.19 313.439 2064.46 312.236 L2064.46 316.263 Q2062.17 317.236 2059.76 317.745 Q2057.35 318.254 2054.87 318.254 Q2048.67 318.254 2045.04 314.643 Q2041.42 311.032 2041.42 304.875 Q2041.42 298.509 2044.85 294.782 Q2048.3 291.032 2054.13 291.032 Q2059.36 291.032 2062.4 294.412 Q2065.45 297.768 2065.45 303.555 M2061.19 302.305 Q2061.15 298.81 2059.23 296.727 Q2057.33 294.643 2054.18 294.643 Q2050.61 294.643 2048.46 296.657 Q2046.33 298.671 2046.01 302.328 L2061.19 302.305 Z" fill="#000000" fill-rule="evenodd" fill-opacity="1" /><path clip-path="url(#clip230)" d="M2091.1 292.653 L2091.1 296.634 Q2089.29 295.639 2087.47 295.152 Q2085.66 294.643 2083.81 294.643 Q2079.67 294.643 2077.37 297.282 Q2075.08 299.898 2075.08 304.643 Q2075.08 309.389 2077.37 312.027 Q2079.67 314.643 2083.81 314.643 Q2085.66 314.643 2087.47 314.157 Q2089.29 313.648 2091.1 312.652 L2091.1 316.588 Q2089.32 317.421 2087.4 317.838 Q2085.5 318.254 2083.35 318.254 Q2077.49 318.254 2074.04 314.574 Q2070.59 310.893 2070.59 304.643 Q2070.59 298.301 2074.06 294.666 Q2077.56 291.032 2083.62 291.032 Q2085.59 291.032 2087.47 291.449 Q2089.34 291.842 2091.1 292.653 Z" fill="#000000" fill-rule="evenodd" fill-opacity="1" /><path clip-path="url(#clip230)" d="M2102.72 284.296 L2102.72 291.657 L2111.49 291.657 L2111.49 294.967 L2102.72 294.967 L2102.72 309.041 Q2102.72 312.213 2103.58 313.115 Q2104.46 314.018 2107.12 314.018 L2111.49 314.018 L2111.49 317.583 L2107.12 317.583 Q2102.19 317.583 2100.31 315.754 Q2098.44 313.902 2098.44 309.041 L2098.44 294.967 L2095.31 294.967 L2095.31 291.657 L2098.44 291.657 L2098.44 284.296 L2102.72 284.296 Z" fill="#000000" fill-rule="evenodd" fill-opacity="1" /><path clip-path="url(#clip230)" d="M2139.27 303.555 L2139.27 305.639 L2119.69 305.639 Q2119.97 310.037 2122.33 312.351 Q2124.71 314.643 2128.95 314.643 Q2131.4 314.643 2133.69 314.041 Q2136.01 313.439 2138.28 312.236 L2138.28 316.263 Q2135.98 317.236 2133.58 317.745 Q2131.17 318.254 2128.69 318.254 Q2122.49 318.254 2118.85 314.643 Q2115.24 311.032 2115.24 304.875 Q2115.24 298.509 2118.67 294.782 Q2122.12 291.032 2127.95 291.032 Q2133.18 291.032 2136.22 294.412 Q2139.27 297.768 2139.27 303.555 M2135.01 302.305 Q2134.97 298.81 2133.04 296.727 Q2131.15 294.643 2128 294.643 Q2124.43 294.643 2122.28 296.657 Q2120.15 298.671 2119.83 302.328 L2135.01 302.305 Z" fill="#000000" fill-rule="evenodd" fill-opacity="1" /><path clip-path="url(#clip230)" d="M2163.32 295.592 L2163.32 281.565 L2167.58 281.565 L2167.58 317.583 L2163.32 317.583 L2163.32 313.694 Q2161.98 316.009 2159.92 317.143 Q2157.88 318.254 2155.01 318.254 Q2150.31 318.254 2147.35 314.504 Q2144.41 310.754 2144.41 304.643 Q2144.41 298.532 2147.35 294.782 Q2150.31 291.032 2155.01 291.032 Q2157.88 291.032 2159.92 292.166 Q2161.98 293.278 2163.32 295.592 M2148.81 304.643 Q2148.81 309.342 2150.73 312.027 Q2152.67 314.689 2156.05 314.689 Q2159.43 314.689 2161.38 312.027 Q2163.32 309.342 2163.32 304.643 Q2163.32 299.944 2161.38 297.282 Q2159.43 294.597 2156.05 294.597 Q2152.67 294.597 2150.73 297.282 Q2148.81 299.944 2148.81 304.643 Z" fill="#000000" fill-rule="evenodd" fill-opacity="1" /></svg>
